  0
SECTION
  2
HEADER
  9
$ACADVER
  1
AC1014
  9
$HANDSEED
  5
FFFF
  9
$MEASUREMENT
 70
     1
  0
ENDSEC
  0
SECTION
  2
TABLES
  0
TABLE
  2
VPORT
  5
8
330
0
100
AcDbSymbolTable
 70
     4
  0
VPORT
  5
2E
330
8
100
AcDbSymbolTableRecord
100
AcDbViewportTableRecord
  2
*ACTIVE
 70
     0
 10
0.0
 20
0.0
 11
1.0
 21
1.0
 12
210.0
 22
148.5
 13
0.0
 23
0.0
 14
10.0
 24
10.0
 15
10.0
 25
10.0
 16
0.0
 26
0.0
 36
1.0
 17
0.0
 27
0.0
 37
0.0
 40
341.0
 41
1.24
 42
50.0
 43
0.0
 44
0.0
 50
0.0
 51
0.0
 71
     0
 72
   100
 73
     1
 74
     3
 75
     0
 76
     0
 77
     0
 78
     0
  0
ENDTAB
  0
TABLE
  2
LTYPE
  5
5
330
0
100
AcDbSymbolTable
 70
     1
  0
LTYPE
  5
14
330
5
100
AcDbSymbolTableRecord
100
AcDbLinetypeTableRecord
  2
BYBLOCK
 70
     0
  3

 72
    65
 73
     0
 40
0.0
  0
LTYPE
  5
15
330
5
100
AcDbSymbolTableRecord
100
AcDbLinetypeTableRecord
  2
BYLAYER
 70
     0
  3

 72
    65
 73
     0
 40
0.0
  0
LTYPE
  5
16
330
5
100
AcDbSymbolTableRecord
100
AcDbLinetypeTableRecord
  2
CONTINUOUS
 70
     0
  3
Solid line
 72
    65
 73
     0
 40
0.0
  0
ENDTAB
  0
TABLE
  2
LAYER
  5
2
100
AcDbSymbolTable
 70
2
  0
LAYER
  5
50
100
AcDbSymbolTableRecord
100
AcDbLayerTableRecord
  2
0
 70
0
  6
CONTINUOUS
  0
LAYER
  5
51
100
AcDbSymbolTableRecord
100
AcDbLayerTableRecord
  2
Layer_1
 70
0
  6
CONTINUOUS
  0
ENDTAB
  0
TABLE
  2
STYLE
  5
3
330
0
100
AcDbSymbolTable
 70
     1
  0
STYLE
  5
11
330
3
100
AcDbSymbolTableRecord
100
AcDbTextStyleTableRecord
  2
STANDARD
 70
     0
 40
0.0
 41
1.0
 50
0.0
 71
     0
 42
2.5
  3
txt
  4

  0
ENDTAB
  0
TABLE
  2
VIEW
  5
6
330
0
100
AcDbSymbolTable
 70
     0
  0
ENDTAB
  0
TABLE
  2
UCS
  5
7
330
0
100
AcDbSymbolTable
 70
     0
  0
ENDTAB
  0
TABLE
  2
APPID
  5
9
330
0
100
AcDbSymbolTable
 70
     2
  0
APPID
  5
12
330
9
100
AcDbSymbolTableRecord
100
AcDbRegAppTableRecord
  2
ACAD
 70
     0
  0
ENDTAB
  0
TABLE
  2
DIMSTYLE
  5
A
330
0
100
AcDbSymbolTable
 70
     1
  0
DIMSTYLE
105
27
330
A
100
AcDbSymbolTableRecord
100
AcDbDimStyleTableRecord
  2
ISO-25
 70
     0
  3

  4

  5

  6

  7

 40
1.0
 41
2.5
 42
0.625
 43
3.75
 44
1.25
 45
0.0
 46
0.0
 47
0.0
 48
0.0
140
2.5
141
2.5
142
0.0
143
0.03937007874016
144
1.0
145
0.0
146
1.0
147
0.625
 71
     0
 72
     0
 73
     0
 74
     0
 75
     0
 76
     0
 77
     1
 78
     8
170
     0
171
     3
172
     1
173
     0
174
     0
175
     0
176
     0
177
     0
178
     0
270
     2
271
     2
272
     2
273
     2
274
     3
340
11
275
     0
280
     0
281
     0
282
     0
283
     0
284
     8
285
     0
286
     0
287
     3
288
     0
  0
ENDTAB
  0
TABLE
  2
BLOCK_RECORD
  5
1
330
0
100
AcDbSymbolTable
 70
     1
  0
BLOCK_RECORD
  5
1F
330
1
100
AcDbSymbolTableRecord
100
AcDbBlockTableRecord
  2
*MODEL_SPACE
  0
BLOCK_RECORD
  5
1B
330
1
100
AcDbSymbolTableRecord
100
AcDbBlockTableRecord
  2
*PAPER_SPACE
  0
ENDTAB
  0
ENDSEC
  0
SECTION
  2
BLOCKS
  0
BLOCK
  5
20
330
1F
100
AcDbEntity
  8
0
100
AcDbBlockBegin
  2
*MODEL_SPACE
 70
     0
 10
0.0
 20
0.0
 30
0.0
  3
*MODEL_SPACE
  1

  0
ENDBLK
  5
21
330
1F
100
AcDbEntity
  8
0
100
AcDbBlockEnd
  0
BLOCK
  5
1C
330
1B
100
AcDbEntity
 67
     1
  8
0
100
AcDbBlockBegin
  2
*PAPER_SPACE
  1

  0
ENDBLK
  5
1D
330
1B
100
AcDbEntity
 67
     1
  8
0
100
AcDbBlockEnd
  0
ENDSEC
  0
SECTION
  2
ENTITIES
  0
LWPOLYLINE
  5
100
100
AcDbEntity
  8
Layer_1
 62
7
100
AcDbPolyline
 90
152
 70
1
 10
54.393803
 20
103.287725
 30
0.0
 10
53.807879
 20
103.250179
 30
0.0
 10
53.218867
 20
103.130935
 30
0.0
 10
52.632942
 20
102.928739
 30
0.0
 10
52.056421
 20
102.639348
 30
0.0
 10
52.417745
 20
101.195311
 30
0.0
 10
53.515201
 20
99.871856
 30
0.0
 10
53.891159
 20
99.108551
 30
0.0
 10
52.088287
 20
99.344699
 30
0.0
 10
50.322358
 20
100.408128
 30
0.0
 10
48.028124
 20
100.981491
 30
0.0
 10
46.407825
 20
100.531849
 30
0.0
 10
46.663883
 20
98.525857
 30
0.0
 10
47.013814
 20
98.165767
 30
0.0
 10
47.370668
 20
97.815591
 30
0.0
 10
47.733632
 20
97.473881
 30
0.0
 10
48.101852
 20
97.139713
 30
0.0
 10
46.977153
 20
96.818276
 30
0.0
 10
45.867708
 20
96.414823
 30
0.0
 10
44.776917
 20
95.926878
 30
0.0
 10
43.708223
 20
95.352007
 30
0.0
 10
40.410382
 20
93.110654
 30
0.0
 10
37.554722
 20
90.273784
 30
0.0
 10
35.156536
 20
86.937834
 30
0.0
 10
33.231148
 20
83.199386
 30
0.0
 10
31.704505
 20
84.208142
 30
0.0
 10
30.177834
 20
85.216895
 30
0.0
 10
28.650691
 20
86.224769
 30
0.0
 10
27.122597
 20
87.230522
 30
0.0
 10
24.104115
 20
88.183663
 30
0.0
 10
21.222876
 20
87.148937
 30
0.0
 10
19.254745
 20
84.590524
 30
0.0
 10
18.975520
 20
80.972580
 30
0.0
 10
19.174675
 20
79.658395
 30
0.0
 10
19.509579
 20
78.446407
 30
0.0
 10
19.966569
 20
77.328541
 30
0.0
 10
20.531967
 20
76.296819
 30
0.0
 10
19.328104
 20
76.631930
 30
0.0
 10
18.124351
 20
76.967508
 30
0.0
 10
16.920516
 20
77.302603
 30
0.0
 10
15.716341
 20
77.635827
 30
0.0
 10
12.685614
 20
77.621685
 30
0.0
 10
10.061771
 20
75.943358
 30
0.0
 10
8.536618
 20
73.102449
 30
0.0
 10
8.802010
 20
69.598470
 30
0.0
 10
9.827094
 20
67.361830
 30
0.0
 10
11.256937
 20
65.680546
 30
0.0
 10
12.994128
 20
64.443942
 30
0.0
 10
14.941342
 20
63.541454
 30
0.0
 10
12.331483
 20
63.629591
 30
0.0
 10
9.731987
 20
63.615449
 30
0.0
 10
7.248773
 20
63.096101
 30
0.0
 10
4.987803
 20
61.668435
 30
0.0
 10
2.886235
 20
58.219554
 30
0.0
 10
2.554582
 20
54.069111
 30
0.0
 10
3.798524
 20
50.149678
 30
0.0
 10
6.423258
 20
47.393642
 30
0.0
 10
5.940577
 20
47.393642
 30
0.0
 10
5.457891
 20
47.393642
 30
0.0
 10
4.975164
 20
47.393642
 30
0.0
 10
4.492479
 20
47.393642
 30
0.0
 10
3.519507
 20
46.635708
 30
0.0
 10
2.994675
 20
45.315647
 30
0.0
 10
2.763412
 20
43.775602
 30
0.0
 10
2.671558
 20
42.357743
 30
0.0
 10
2.672618
 20
39.970089
 30
0.0
 10
2.697004
 20
37.472430
 30
0.0
 10
3.164365
 20
35.225420
 30
0.0
 10
4.491141
 20
33.589698
 30
0.0
 10
4.595189
 20
33.589698
 30
0.0
 10
4.699644
 20
33.589698
 30
0.0
 10
4.804099
 20
33.589698
 30
0.0
 10
4.908533
 20
33.589698
 30
0.0
 10
4.909883
 20
28.737286
 30
0.0
 10
4.885476
 20
23.881838
 30
0.0
 10
4.939126
 20
19.030244
 30
0.0
 10
5.173643
 20
14.189446
 30
0.0
 10
5.741597
 20
10.524872
 30
0.0
 10
6.631371
 20
6.739740
 30
0.0
 10
8.223145
 20
3.531572
 30
0.0
 10
10.897127
 20
1.597943
 30
0.0
 10
31.147409
 20
1.597943
 30
0.0
 10
51.397673
 20
1.597943
 30
0.0
 10
71.647981
 20
1.597943
 30
0.0
 10
91.898220
 20
1.597943
 30
0.0
 10
94.225876
 20
1.583801
 30
0.0
 10
96.282896
 20
2.515386
 30
0.0
 10
97.879378
 20
4.299044
 30
0.0
 10
98.825449
 20
6.840346
 30
0.0
 10
100.179460
 20
13.397556
 30
0.0
 10
100.602549
 20
20.105985
 30
0.0
 10
100.574149
 20
26.879549
 30
0.0
 10
100.566149
 20
33.632238
 30
0.0
 10
101.683564
 20
34.253631
 30
0.0
 10
102.513914
 20
35.288071
 30
0.0
 10
102.961524
 20
36.742976
 30
0.0
 10
102.929024
 20
38.625765
 30
0.0
 10
102.928044
 20
41.013515
 30
0.0
 10
102.903644
 20
43.511408
 30
0.0
 10
102.436474
 20
45.758606
 30
0.0
 10
101.109834
 20
47.394361
 30
0.0
 10
100.491838
 20
47.394361
 30
0.0
 10
99.873820
 20
47.394361
 30
0.0
 10
99.255783
 20
47.394361
 30
0.0
 10
98.637778
 20
47.394361
 30
0.0
 10
101.310774
 20
50.137389
 30
0.0
 10
102.586004
 20
54.079179
 30
0.0
 10
102.267374
 20
58.267499
 30
0.0
 10
100.158347
 20
61.750269
 30
0.0
 10
98.595117
 20
62.870364
 30
0.0
 10
96.905557
 20
63.479721
 30
0.0
 10
95.126895
 20
63.719623
 30
0.0
 10
93.296343
 20
63.729050
 30
0.0
 10
94.269889
 20
64.512201
 30
0.0
 10
95.127478
 20
65.466956
 30
0.0
 10
95.847269
 20
66.615174
 30
0.0
 10
96.407506
 20
67.978708
 30
0.0
 10
96.785089
 20
71.571340
 30
0.0
 10
95.398898
 20
74.665786
 30
0.0
 10
92.851996
 20
76.682023
 30
0.0
 10
89.747742
 20
77.040227
 30
0.0
 10
88.473511
 20
76.798456
 30
0.0
 10
87.199540
 20
76.554767
 30
0.0
 10
85.925633
 20
76.310637
 30
0.0
 10
84.651662
 20
76.066949
 30
0.0
 10
84.826023
 20
76.376133
 30
0.0
 10
84.991443
 20
76.697105
 30
0.0
 10
85.147921
 20
77.030331
 30
0.0
 10
85.295052
 20
77.376281
 30
0.0
 10
86.181240
 20
81.024107
 30
0.0
 10
85.244112
 20
84.552341
 30
0.0
 10
82.926494
 20
86.802101
 30
0.0
 10
79.671222
 20
86.614514
 30
0.0
 10
77.711367
 20
85.601031
 30
0.0
 10
75.752543
 20
84.584957
 30
0.0
 10
73.794410
 20
83.566917
 30
0.0
 10
71.836669
 20
82.547684
 30
0.0
 10
71.224258
 20
83.952834
 30
0.0
 10
70.546683
 20
85.317341
 30
0.0
 10
69.804212
 20
86.637139
 30
0.0
 10
68.996846
 20
87.906642
 30
0.0
 10
66.781977
 20
90.825664
 30
0.0
 10
64.187399
 20
93.270000
 30
0.0
 10
61.292544
 20
95.206032
 30
0.0
 10
58.176679
 20
96.600202
 30
0.0
 10
58.888465
 20
99.120202
 30
0.0
 10
58.223136
 20
101.258385
 30
0.0
 10
56.588582
 20
102.737942
 30
0.0
 10
54.392586
 20
103.289670
 30
0.0
 10
54.392586
 20
103.289670
 30
0.0
 10
54.392586
 20
103.289670
 30
0.0
 10
54.392547
 20
103.289670
 30
0.0
  0
ENDSEC
  0
SECTION
  2
OBJECTS
  0
DICTIONARY
  5
C
330
0
100
AcDbDictionary
  3
ACAD_GROUP
350
D
  3
ACAD_MLINESTYLE
350
17
  0
DICTIONARY
  5
D
330
C
100
AcDbDictionary
  0
DICTIONARY
  5
1A
330
C
100
AcDbDictionary
  0
DICTIONARY
  5
17
330
C
100
AcDbDictionary
  3
STANDARD
350
18
  0
DICTIONARY
  5
19
330
C
100
AcDbDictionary
  0
ENDSEC
  0
EOF
